Introduction to machine learning
…
Yup, looks like a cloud!

Data pre-processing and feature engineering

A bunch of data processing has been done for us, but the data arent quite ready to be fed into an algorithm yet. To do that, wed need a data frame with each row equal to one drawing and each column equal to one feature for that drawing, with an extra column for the drawing output.

Can we think of how wed do that for a data set like this?

rjson::fromJSON(clouds_json[[1]]) %>% 
    parse_drawing()

## # A tibble: 36 x 5
##    line      x     y drawing          row_id
##    <chr> <dbl> <dbl> <chr>             <int>
##  1 1         7    85 4860258482651136      1
##  2 1         7    67 4860258482651136      2
##  3 1        12    49 4860258482651136      3
##  4 1        27    29 4860258482651136      4
##  5 1        42    19 4860258482651136      5
##  6 1        52    16 4860258482651136      6
##  7 1        73    18 4860258482651136      7
##  8 1        83    24 4860258482651136      8
##  9 1        92    36 4860258482651136      9
## 10 1       104    20 4860258482651136     10
## # ... with 26 more rows
…
Points on a regular grid

Lets start by creating a regular grid of 256 x and y values.

grid_dat = as.tibble(expand.grid(x = 1:256,y=1:256))

Now we could make each x,y value be a grid point with a join - this is overkill

grid_axe = left_join(grid_dat,first_axe)

## Joining, by = c("x", "y")

grid_axe

## # A tibble: 65,536 x 5
##        x     y line  drawing row_id
##    <dbl> <dbl> <chr> <chr>    <int>
##  1     1     1 <NA>  <NA>        NA
##  2     2     1 <NA>  <NA>        NA
##  3     3     1 <NA>  <NA>        NA
##  4     4     1 <NA>  <NA>        NA
##  5     5     1 <NA>  <NA>        NA
##  6     6     1 <NA>  <NA>        NA
##  7     7     1 <NA>  <NA>        NA
##  8     8     1 <NA>  <NA>        NA
##  9     9     1 <NA>  <NA>        NA
## 10    10     1 <NA>  <NA>        NA
## # ... with 65,526 more rows
…
Lets add an indicator of whether a particular value is zero or not.

grid_axe = grid_axe %>%
   mutate(pixel = ifelse(is.na(line),0,1))

Data set of a manageable size

Lets try subsampling this down to a smaller image

grid_axe$xgroup = cut2(grid_axe$x,g=16,levels.mean=TRUE)
grid_axe$ygroup = cut2(grid_axe$y,g=16,levels.mean=TRUE)
grid_axe

## # A tibble: 65,536 x 8
##        x     y line  drawing row_id pixel xgroup  ygroup 
##    <dbl> <dbl> <chr> <chr>    <int> <dbl> <fct>   <fct>  
##  1     1     1 <NA>  <NA>        NA     0 "  8.5" "  8.5"
##  2     2     1 <NA>  <NA>        NA     0 "  8.5" "  8.5"
##  3     3     1 <NA>  <NA>        NA     0 "  8.5" "  8.5"
##  4     4     1 <NA>  <NA>        NA     0 "  8.5" "  8.5"
##  5     5     1 <NA>  <NA>        NA     0 "  8.5" "  8.5"
##  6     6     1 <NA>  <NA>        NA     0 "  8.5" "  8.5"
##  7     7     1 <NA>  <NA>        NA     0 "  8.5" "  8.5"
##  8     8     1 <NA>  <NA>        NA     0 "  8.5" "  8.5"
##  9     9     1 <NA>  <NA>        NA     0 "  8.5" "  8.5"
## 10    10     1 <NA>  <NA>        NA     0 "  8.5" "  8.5"
## # ... with 65,526 more rows
Now I can convert these to numbers so well have them later

grid_axe = grid_axe %>% 
    mutate(xgroup = as.numeric(as.character(xgroup)) - 7.5) %>%
    mutate(ygroup = as.numeric(as.character(ygroup)) - 7.5)

Now we can average within groups of pixels to get a smaller image

small_axe = grid_axe %>% 
    group_by(xgroup,ygroup) %>%
    summarise(pixel=mean(pixel))

small_axe

## # A tibble: 256 x 3
## # Groups:   xgroup [?]
##    xgroup ygroup pixel
##     <dbl>  <dbl> <dbl>
##  1      1      1     0
##  2      1     17     0
##  3      1     33     0
##  4      1     49     0
##  5      1     65     0
##  6      1     81     0
##  7      1     97     0
##  8      1    113     0
##  9      1    129     0
## 10      1    145     0
## # ... with 246 more rows
…
Now lets look at this new data frame

img_dat = img_dat[-1,]
img_dat

## # A tibble: 51,200 x 4
##      pixel type  drawing pixel_number
##      <dbl> <chr>   <int>        <int>
##  1 0       axe         1            1
##  2 0       axe         1            2
##  3 0       axe         1            3
##  4 0.00735 axe         1            4
##  5 0       axe         1            5
##  6 0       axe         1            6
##  7 0       axe         1            7
##  8 0       axe         1            8
##  9 0       axe         1            9
## 10 0       axe         1           10
## # ... with 51,190 more rows

We can spread this out and viola we finally have a processed data set!

img_final = spread(img_dat,pixel_number,pixel)
names(img_final) = c("type","drawing",paste0("pixel",1:256))
img_final 

## # A tibble: 200 x 258
##    type  drawing  pixel1  pixel2  pixel3  pixel4  pixel5  pixel6  pixel7
##    <chr>   <int>   <dbl>   <dbl>   <dbl>   <dbl>   <dbl>   <dbl>   <dbl>
##  1 axe         1 0       0       0       0.00735 0       0       0      
##  2 axe         2 0       0       0       0.00391 0.00391 0       0      
##  3 axe         3 0       0       0       0       0       0       0      
##  4 axe         4 0       0       0       0       0.00391 0.00391 0      
##  5 axe         5 0       0.00391 0       0.00391 0.00391 0       0      
##  6 axe         6 0       0.00391 0       0.00391 0       0       0      
##  7 axe         7 0.00781 0       0.00391 0       0       0.00391 0      
##  8 axe         8 0       0       0       0       0       0       0      
##  9 axe         9 0       0.00391 0       0       0       0       0.00391
## 10 axe        10 0       0       0.00391 0.00391 0       0       0.00391
## # ... with 190 more rows, and 249 more variables: pixel8 <dbl>,
## #   pixel9 <dbl>, pixel10 <dbl>, pixel11 <dbl>, pixel12 <dbl>,
## #   pixel13 <dbl>, pixel14 <dbl>, pixel15 <dbl>, pixel16 <dbl>,
## #   pixel17 <dbl>, pixel18 <dbl>, pixel19 <dbl>, pixel20 <dbl>,
## #   pixel21 <dbl>, pixel22 <dbl>, pixel23 <dbl>, pixel24 <dbl>,
## #   pixel25 <dbl>, pixel26 <dbl>, pixel27 <dbl>, pixel28 <dbl>,
## #   pixel29 <dbl>, pixel30 <dbl>, pixel31 <dbl>, pixel32 <dbl>,
## #   pixel33 <dbl>, pixel34 <dbl>, pixel35 <dbl>, pixel36 <dbl>,
## #   pixel37 <dbl>, pixel38 <dbl>, pixel39 <dbl>, pixel40 <dbl>,
…
